{
    "categories": {
      "href": "https://api.spotify.com/v1/browse/categories?country=IN&locale=en_in&offset=0&limit=50",
      "items": [
        {
          "href": "https://api.spotify.com/v1/browse/categories/toplists",
          "icons": [
            {
              "height": 275,
              "url": "https://t.scdn.co/media/derived/toplists_11160599e6a04ac5d6f2757f5511778f_0_0_275_275.jpg",
              "width": 275
            }
          ],
          "id": "toplists",
          "name": "Top Lists"
        },
        {
          "href": "https://api.spotify.com/v1/browse/categories/0JQ5DAqbMKFHCxg5H5PtqW",
          "icons": [
            {
              "height": null,
              "url": "https://t.scdn.co/images/8a0fabf4d537486e9b5a4623c921f77e.jpeg",
              "width": null
            }
          ],
          "id": "0JQ5DAqbMKFHCxg5H5PtqW",
          "name": "Bollywood"
        },
        {
          "href": "https://api.spotify.com/v1/browse/categories/0JQ5DAqbMKFKSopHMaeIeI",
          "icons": [
            {
              "height": null,
              "url": "https://t.scdn.co/images/11e89d14d7844b7eb3d26619cb662a9b.jpeg",
              "width": null
            }
          ],
          "id": "0JQ5DAqbMKFKSopHMaeIeI",
          "name": "Punjabi"
        },
        {
          "href": "https://api.spotify.com/v1/browse/categories/0JQ5DAqbMKFE33XAyDiPIr",
          "icons": [
            {
              "height": null,
              "url": "https://t.scdn.co/images/2117dadfdd254825b3fbc52e3652ed56.jpeg",
              "width": null
            }
          ],
          "id": "0JQ5DAqbMKFE33XAyDiPIr",
          "name": "Tamil"
        },
        {
          "href": "https://api.spotify.com/v1/browse/categories/0JQ5DAqbMKFIdOwkMWR5at",
          "icons": [
            {
              "height": null,
              "url": "https://t.scdn.co/images/96b5132876eb4e818723555ce365cd87.jpeg",
              "width": null
            }
          ],
          "id": "0JQ5DAqbMKFIdOwkMWR5at",
          "name": "Telugu"
        },
        {
          "href": "https://api.spotify.com/v1/browse/categories/0JQ5DAqbMKFCWjUTdzaG0e",
          "icons": [
            {
              "height": null,
              "url": "https://t.scdn.co/images/fe06caf056474bc58862591cd60b57fc.jpeg",
              "width": null
            }
          ],
          "id": "0JQ5DAqbMKFCWjUTdzaG0e",
          "name": "Indie"
        },
        {
          "href": "https://api.spotify.com/v1/browse/categories/0JQ5DAqbMKFCfObibaOZbv",
          "icons": [
            {
              "height": null,
              "url": "https://t.scdn.co/images/0d39395309ba47838ef12ce987f19d16.jpeg",
              "width": null
            }
          ],
          "id": "0JQ5DAqbMKFCfObibaOZbv",
          "name": "Gaming"
        },
        {
          "href": "https://api.spotify.com/v1/browse/categories/0JQ5DAqbMKFPw634sFwguI",
          "icons": [
            {
              "height": null,
              "url": "https://t.scdn.co/images/084155aeaa724ea1bd393a017d67b709",
              "width": null
            }
          ],
          "id": "0JQ5DAqbMKFPw634sFwguI",
          "name": "EQUAL"
        },
        {
          "href": "https://api.spotify.com/v1/browse/categories/0JQ5DAqbMKFEC4WFtoNRpw",
          "icons": [
            {
              "height": 274,
              "url": "https://t.scdn.co/media/derived/pop-274x274_447148649685019f5e2a03a39e78ba52_0_0_274_274.jpg",
              "width": 274
            }
          ],
          "id": "0JQ5DAqbMKFEC4WFtoNRpw",
          "name": "Pop"
        },
        {
          "href": "https://api.spotify.com/v1/browse/categories/0JQ5DAqbMKFOOxftoKZxod",
          "icons": [
            {
              "height": null,
              "url": "https://t.scdn.co/images/c6677aa51acf4121b66b9d1f231bd427.png",
              "width": null
            }
          ],
          "id": "0JQ5DAqbMKFOOxftoKZxod",
          "name": "RADAR"
        },
        {
          "href": "https://api.spotify.com/v1/browse/categories/0JQ5DAqbMKFImHYGo3eTSg",
          "icons": [
            {
              "height": null,
              "url": "https://t.scdn.co/images/16e40e64d2a74fa8a0a020d456e6541d.jpeg",
              "width": null
            }
          ],
          "id": "0JQ5DAqbMKFImHYGo3eTSg",
          "name": "Fresh Finds"
        },
        {
          "href": "https://api.spotify.com/v1/browse/categories/0JQ5DAqbMKFOx2X0qlR9iG",
          "icons": [
            {
              "height": null,
              "url": "https://t.scdn.co/images/713254a577a64338a450481329f0d83f.jpeg",
              "width": null
            }
          ],
          "id": "0JQ5DAqbMKFOx2X0qlR9iG",
          "name": "Marathi"
        },
        {
          "href": "https://api.spotify.com/v1/browse/categories/0JQ5DAqbMKFLb2EqgLtpjC",
          "icons": [
            {
              "height": null,
              "url": "https://t.scdn.co/images/3710b68657574bc79df14bd74629e5ac",
              "width": null
            }
          ],
          "id": "0JQ5DAqbMKFLb2EqgLtpjC",
          "name": "Wellness"
        },
        {
          "href": "https://api.spotify.com/v1/browse/categories/0JQ5DAqbMKFOTGtSOysEXE",
          "icons": [
            {
              "height": null,
              "url": "https://t.scdn.co/images/a1817e719adc4716b8f7a8ccecf64d9b",
              "width": null
            }
          ],
          "id": "0JQ5DAqbMKFOTGtSOysEXE",
          "name": "Devotional"
        },
        {
          "href": "https://api.spotify.com/v1/browse/categories/0JQ5DAqbMKFAEu5QlAkwvV",
          "icons": [
            {
              "height": null,
              "url": "https://t.scdn.co/images/0dcbe54ffb604b37b1ae96223f2524be",
              "width": null
            }
          ],
          "id": "0JQ5DAqbMKFAEu5QlAkwvV",
          "name": "Indian Classical"
        },
        {
          "href": "https://api.spotify.com/v1/browse/categories/0JQ5DAqbMKFAUsdyVjCQuL",
          "icons": [
            {
              "height": 274,
              "url": "https://t.scdn.co/media/derived/romance-274x274_8100794c94847b6d27858bed6fa4d91b_0_0_274_274.jpg",
              "width": 274
            }
          ],
          "id": "0JQ5DAqbMKFAUsdyVjCQuL",
          "name": "Romance"
        },
        {
          "href": "https://api.spotify.com/v1/browse/categories/0JQ5DAqbMKFDKyRxRDLIbk",
          "icons": [
            {
              "height": null,
              "url": "https://t.scdn.co/images/dec76a385201436281efb6796a54f479.jpeg",
              "width": null
            }
          ],
          "id": "0JQ5DAqbMKFDKyRxRDLIbk",
          "name": "Happy Holidays"
        },
        {
          "href": "https://api.spotify.com/v1/browse/categories/0JQ5DAqbMKFIVNxQgRNSg0",
          "icons": [
            {
              "height": null,
              "url": "https://t.scdn.co/images/b611cf5145764c64b80e91ccd5f357c8",
              "width": null
            }
          ],
          "id": "0JQ5DAqbMKFIVNxQgRNSg0",
          "name": "Decades"
        },
        {
          "href": "https://api.spotify.com/v1/browse/categories/0JQ5DAqbMKFGvOw3O4nLAf",
          "icons": [
            {
              "height": null,
              "url": "https://t.scdn.co/images/2078afd91e4d431eb19efc5bee5ab131.jpeg",
              "width": null
            }
          ],
          "id": "0JQ5DAqbMKFGvOw3O4nLAf",
          "name": "K-Pop"
        },
        {
          "href": "https://api.spotify.com/v1/browse/categories/0JQ5DAqbMKFEOEBCABAxo9",
          "icons": [
            {
              "height": null,
              "url": "https://t.scdn.co/images/1a416fb97f5647858c7f09c9cb6e7301",
              "width": null
            }
          ],
          "id": "0JQ5DAqbMKFEOEBCABAxo9",
          "name": "Netflix"
        },
        {
          "href": "https://api.spotify.com/v1/browse/categories/hiphop",
          "icons": [
            {
              "height": 274,
              "url": "https://t.scdn.co/media/original/hip-274_0a661854d61e29eace5fe63f73495e68_274x274.jpg",
              "width": 274
            }
          ],
          "id": "hiphop",
          "name": "Hip-Hop"
        },
        {
          "href": "https://api.spotify.com/v1/browse/categories/0JQ5DAqbMKFA6SOHvT3gck",
          "icons": [
            {
              "height": null,
              "url": "https://t.scdn.co/images/fada056dcfd54cd28faf80d62b7059c6.jpeg",
              "width": null
            }
          ],
          "id": "0JQ5DAqbMKFA6SOHvT3gck",
          "name": "Party"
        },
        {
          "href": "https://api.spotify.com/v1/browse/categories/0JQ5DAqbMKFRieVZLLoo9m",
          "icons": [
            {
              "height": null,
              "url": "https://t.scdn.co/images/384c2b595a1648aa801837ff99961188",
              "width": null
            }
          ],
          "id": "0JQ5DAqbMKFRieVZLLoo9m",
          "name": "Instrumental"
        },
        {
          "href": "https://api.spotify.com/v1/browse/categories/0JQ5DAqbMKFHOzuVTgTizF",
          "icons": [
            {
              "height": 274,
              "url": "https://t.scdn.co/media/derived/edm-274x274_0ef612604200a9c14995432994455a6d_0_0_274_274.jpg",
              "width": 274
            }
          ],
          "id": "0JQ5DAqbMKFHOzuVTgTizF",
          "name": "Dance/Electronic"
        },
        {
          "href": "https://api.spotify.com/v1/browse/categories/0JQ5DAqbMKFJw7QLnM27p6",
          "icons": [
            {
              "height": null,
              "url": "https://t.scdn.co/images/67a216e1e07144f889d366fed5c325bc.jpeg",
              "width": null
            }
          ],
          "id": "0JQ5DAqbMKFJw7QLnM27p6",
          "name": "Student"
        },
        {
          "href": "https://api.spotify.com/v1/browse/categories/0JQ5DAqbMKFFzDl7qN9Apr",
          "icons": [
            {
              "height": 274,
              "url": "https://t.scdn.co/media/derived/chill-274x274_4c46374f007813dd10b37e8d8fd35b4b_0_0_274_274.jpg",
              "width": 274
            }
          ],
          "id": "0JQ5DAqbMKFFzDl7qN9Apr",
          "name": "Chill"
        },
        {
          "href": "https://api.spotify.com/v1/browse/categories/0JQ5DAqbMKFzHmL4tf05da",
          "icons": [
            {
              "height": 274,
              "url": "https://t.scdn.co/media/original/mood-274x274_976986a31ac8c49794cbdc7246fd5ad7_274x274.jpg",
              "width": 274
            }
          ],
          "id": "0JQ5DAqbMKFzHmL4tf05da",
          "name": "Mood"
        },
        {
          "href": "https://api.spotify.com/v1/browse/categories/0JQ5DAqbMKFF1br7dZcRtK",
          "icons": [
            {
              "height": null,
              "url": "https://t.scdn.co/images/c5495b9f0f694ffcb39c9217d4ed4375",
              "width": null
            }
          ],
          "id": "0JQ5DAqbMKFF1br7dZcRtK",
          "name": "Pride"
        },
        {
          "href": "https://api.spotify.com/v1/browse/categories/0JQ5DAqbMKFAXlCG6QvYQ4",
          "icons": [
            {
              "height": null,
              "url": "https://t.scdn.co/media/links/workout-274x274.jpg",
              "width": null
            }
          ],
          "id": "0JQ5DAqbMKFAXlCG6QvYQ4",
          "name": "Workout"
        },
        {
          "href": "https://api.spotify.com/v1/browse/categories/0JQ5DAqbMKFy78wprEpAjl",
          "icons": [
            {
              "height": null,
              "url": "https://t.scdn.co/images/7fe0f2c9c91f45a3b6bae49d298201a4.jpeg",
              "width": null
            }
          ],
          "id": "0JQ5DAqbMKFy78wprEpAjl",
          "name": "Folk & Acoustic"
        },
        {
          "href": "https://api.spotify.com/v1/browse/categories/0JQ5DAqbMKFCuoRTxhYWow",
          "icons": [
            {
              "height": 274,
              "url": "https://t.scdn.co/media/derived/sleep-274x274_0d4f836af8fab7bf31526968073e671c_0_0_274_274.jpg",
              "width": 274
            }
          ],
          "id": "0JQ5DAqbMKFCuoRTxhYWow",
          "name": "Sleep"
        },
        {
          "href": "https://api.spotify.com/v1/browse/categories/0JQ5DAqbMKFFoimhOqWzLB",
          "icons": [
            {
              "height": null,
              "url": "https://t.scdn.co/images/664bb84f7a774e1eadb7c227aed98f3c",
              "width": null
            }
          ],
          "id": "0JQ5DAqbMKFFoimhOqWzLB",
          "name": "Kids & Family"
        },
        {
          "href": "https://api.spotify.com/v1/browse/categories/0JQ5DAqbMKFx0uLQR2okcc",
          "icons": [
            {
              "height": null,
              "url": "https://t.scdn.co/images/04da469dd7be4dab96659aa1fa9f0ac9.jpeg",
              "width": null
            }
          ],
          "id": "0JQ5DAqbMKFx0uLQR2okcc",
          "name": "At Home"
        },
        {
          "href": "https://api.spotify.com/v1/browse/categories/0JQ5DAqbMKFEZPnFQSFB1T",
          "icons": [
            {
              "height": 274,
              "url": "https://t.scdn.co/media/derived/r-b-274x274_fd56efa72f4f63764b011b68121581d8_0_0_274_274.jpg",
              "width": 274
            }
          ],
          "id": "0JQ5DAqbMKFEZPnFQSFB1T",
          "name": "R&B"
        },
        {
          "href": "https://api.spotify.com/v1/browse/categories/0JQ5DAqbMKFRKBHIxJ5hMm",
          "icons": [
            {
              "height": null,
              "url": "https://t.scdn.co/images/b4182906bf244b4994805084c057e9ee.jpeg",
              "width": null
            }
          ],
          "id": "0JQ5DAqbMKFRKBHIxJ5hMm",
          "name": "Tastemakers"
        },
        {
          "href": "https://api.spotify.com/v1/browse/categories/0JQ5DAqbMKFDXXwE9BDJAr",
          "icons": [
            {
              "height": 274,
              "url": "https://t.scdn.co/media/derived/rock_9ce79e0a4ef901bbd10494f5b855d3cc_0_0_274_274.jpg",
              "width": 274
            }
          ],
          "id": "0JQ5DAqbMKFDXXwE9BDJAr",
          "name": "Rock"
        },
        {
          "href": "https://api.spotify.com/v1/browse/categories/0JQ5DAqbMKFCbimwdOYlsl",
          "icons": [
            {
              "height": 274,
              "url": "https://t.scdn.co/media/original/genre-images-square-274x274_5e50d72b846a198fcd2ca9b3aef5f0c8_274x274.jpg",
              "width": 274
            }
          ],
          "id": "0JQ5DAqbMKFCbimwdOYlsl",
          "name": "Focus"
        },
        {
          "href": "https://api.spotify.com/v1/browse/categories/0JQ5DAqbMKFLVaM30PMBm4",
          "icons": [
            {
              "height": null,
              "url": "https://t.scdn.co/images/8e508d7eb5b843a89c368c9507ecc429.jpeg",
              "width": null
            }
          ],
          "id": "0JQ5DAqbMKFLVaM30PMBm4",
          "name": "Summer"
        },
        {
          "href": "https://api.spotify.com/v1/browse/categories/0JQ5DAqbMKFRY5ok2pxXJ0",
          "icons": [
            {
              "height": 274,
              "url": "https://t.scdn.co/media/original/dinner_1b6506abba0ba52c54e6d695c8571078_274x274.jpg",
              "width": 274
            }
          ],
          "id": "0JQ5DAqbMKFRY5ok2pxXJ0",
          "name": "Cooking & Dining"
        },
        {
          "href": "https://api.spotify.com/v1/browse/categories/0JQ5DAqbMKFAJ5xb0fwo9m",
          "icons": [
            {
              "height": null,
              "url": "https://t.scdn.co/images/568f37f1cab54136939d63bd1f59d40c",
              "width": null
            }
          ],
          "id": "0JQ5DAqbMKFAJ5xb0fwo9m",
          "name": "Jazz"
        },
        {
          "href": "https://api.spotify.com/v1/browse/categories/0JQ5DAqbMKFFgo8jQnAk7E",
          "icons": [
            {
              "height": null,
              "url": "https://t.scdn.co/images/9378062ced4e466980de864ee3cc3bf3",
              "width": null
            }
          ],
          "id": "0JQ5DAqbMKFFgo8jQnAk7E",
          "name": "API Heritage Month"
        },
        {
          "href": "https://api.spotify.com/v1/browse/categories/0JQ5DAqbMKFObNLOHydSW8",
          "icons": [
            {
              "height": null,
              "url": "https://t.scdn.co/images/495fadcefe234607b14b2db3381f3f5d.jpeg",
              "width": null
            }
          ],
          "id": "0JQ5DAqbMKFObNLOHydSW8",
          "name": "Caribbean"
        },
        {
          "href": "https://api.spotify.com/v1/browse/categories/0JQ5DAqbMKFIpEuaCnimBj",
          "icons": [
            {
              "height": 274,
              "url": "https://t.scdn.co/media/derived/soul-274x274_266bc900b35dda8956380cffc73a4d8c_0_0_274_274.jpg",
              "width": 274
            }
          ],
          "id": "0JQ5DAqbMKFIpEuaCnimBj",
          "name": "Soul"
        },
        {
          "href": "https://api.spotify.com/v1/browse/categories/0JQ5DAqbMKFPrEiAOxgac3",
          "icons": [
            {
              "height": 274,
              "url": "https://t.scdn.co/media/derived/classical-274x274_abf78251ff3d90d2ceaf029253ca7cb4_0_0_274_274.jpg",
              "width": 274
            }
          ],
          "id": "0JQ5DAqbMKFPrEiAOxgac3",
          "name": "Classical"
        },
        {
          "href": "https://api.spotify.com/v1/browse/categories/0JQ5DAqbMKFxXaXKP7zcDp",
          "icons": [
            {
              "height": null,
              "url": "https://t.scdn.co/images/26a60378-a374-4cd7-b894-28efa5e154cb.jpg",
              "width": null
            }
          ],
          "id": "0JQ5DAqbMKFxXaXKP7zcDp",
          "name": "Latin"
        },
        {
          "href": "https://api.spotify.com/v1/browse/categories/0JQ5DAqbMKFDkd668ypn6O",
          "icons": [
            {
              "height": 274,
              "url": "https://t.scdn.co/media/original/metal_27c921443fd0a5ba95b1b2c2ae654b2b_274x274.jpg",
              "width": 274
            }
          ],
          "id": "0JQ5DAqbMKFDkd668ypn6O",
          "name": "Metal"
        },
        {
          "href": "https://api.spotify.com/v1/browse/categories/0JQ5DAqbMKFQiK2EHwyjcU",
          "icons": [
            {
              "height": null,
              "url": "https://t.scdn.co/images/6fe5cd3ebc8c4db7bb8013152b153505",
              "width": null
            }
          ],
          "id": "0JQ5DAqbMKFQiK2EHwyjcU",
          "name": "Blues"
        },
        {
          "href": "https://api.spotify.com/v1/browse/categories/funk",
          "icons": [
            {
              "height": null,
              "url": "https://t.scdn.co/images/f4f0987fcab446fcaa7173acb5e25701.jpeg",
              "width": null
            }
          ],
          "id": "funk",
          "name": "Funk"
        },
        {
          "href": "https://api.spotify.com/v1/browse/categories/0JQ5DAqbMKFAjfauKLOZiv",
          "icons": [
            {
              "height": 274,
              "url": "https://t.scdn.co/media/derived/punk-274x274_f3f1528ea7bbb60a625da13e3315a40b_0_0_274_274.jpg",
              "width": 274
            }
          ],
          "id": "0JQ5DAqbMKFAjfauKLOZiv",
          "name": "Punk"
        },
        {
          "href": "https://api.spotify.com/v1/browse/categories/0JQ5DAqbMKFAQy4HL4XU2D",
          "icons": [
            {
              "height": 274,
              "url": "https://t.scdn.co/media/derived/travel-274x274_1e89cd5b42cf8bd2ff8fc4fb26f2e955_0_0_274_274.jpg",
              "width": 274
            }
          ],
          "id": "0JQ5DAqbMKFAQy4HL4XU2D",
          "name": "Travel"
        }
      ],
      "limit": 50,
      "next": "https://api.spotify.com/v1/browse/categories?country=IN&locale=en_in&offset=50&limit=50",
      "offset": 0,
      "previous": null,
      "total": 55
    }
  }